// Jest Snapshot v1, https://goo.gl/fbAQLP

exports[`Widget Tests Icons DiceRack 1`] = `
<div>
  <br />
  <Dice1
    onClick={[Function]}
  />
  <Dice2
    onClick={[Function]}
  />
  <Dice3
    onClick={[Function]}
  />
  <Dice4
    onClick={[Function]}
  />
  <Dice5
    onClick={[Function]}
  />
  <Dice6
    onClick={[Function]}
  />
</div>
`;

exports[`Widget Tests Icons Icon.Delete 1`] = `
<svg
  className="bi bi-x-circle"
  color="red"
  fill="currentColor"
  height="16"
  viewBox="0 0 16 16"
  width="16"
  xmlns="http://www.w3.org/2000/svg"
>
  <path
    d="M8 15A7 7 0 1 1 8 1a7 7 0 0 1 0 14zm0 1A8 8 0 1 0 8 0a8 8 0 0 0 0 16z"
  />
  <path
    d="M4.646 4.646a.5.5 0 0 1 .708 0L8 7.293l2.646-2.647a.5.5 0 0 1 .708.708L8.707 8l2.647 2.646a.5.5 0 0 1-.708.708L8 8.707l-2.646 2.647a.5.5 0 0 1-.708-.708L7.293 8 4.646 5.354a.5.5 0 0 1 0-.708z"
  />
</svg>
`;

exports[`Widget Tests Icons Icon.Edit 1`] = `
<div>
  <svg
    className="bi bi-pencil-square"
    fill="currentColor"
    height="16"
    viewBox="0 0 16 16"
    width="16"
    xmlns="http://www.w3.org/2000/svg"
  >
    <path
      d="M15.502 1.94a.5.5 0 0 1 0 .706L14.459 3.69l-2-2L13.502.646a.5.5 0 0 1 .707 0l1.293 1.293zm-1.75 2.456-2-2L4.939 9.21a.5.5 0 0 0-.121.196l-.805 2.414a.25.25 0 0 0 .316.316l2.414-.805a.5.5 0 0 0 .196-.12l6.813-6.814z"
    />
    <path
      d="M1 13.5A1.5 1.5 0 0 0 2.5 15h11a1.5 1.5 0 0 0 1.5-1.5v-6a.5.5 0 0 0-1 0v6a.5.5 0 0 1-.5.5h-11a.5.5 0 0 1-.5-.5v-11a.5.5 0 0 1 .5-.5H9a.5.5 0 0 0 0-1H2.5A1.5 1.5 0 0 0 1 2.5v11z"
      fillRule="evenodd"
    />
  </svg>
</div>
`;
